<?xml version="1.0" encoding="UTF-8"?>
<!DOCTYPE svg PUBLIC "-//W3C//DTD SVG 1.1//EN" "http://www.w3.org/Graphics/SVG/1.1/DTD/svg11.dtd">
<!-- Creator: CorelDRAW 2017 -->
<svg xmlns="http://www.w3.org/2000/svg" xml:space="preserve" width="1000px" height="1000px" version="1.1" style="shape-rendering:geometricPrecision; text-rendering:geometricPrecision; image-rendering:optimizeQuality; fill-rule:evenodd; clip-rule:evenodd"
viewBox="0 0 1000 1000"
 xmlns:xlink="http://www.w3.org/1999/xlink">
 <defs>
  <style type="text/css">
   <![CDATA[
    .fil0 {fill:#ffffff;fill-rule:nonzero}
   ]]>
  </style>
 </defs>
 <g id="Warstwa_x0020_1">
  <metadata id="CorelCorpID_0Corel-Layer"/>
  <path class="fil0" d="M944.808 0l-889.616 0c-30.486,0 -55.192,24.705 -55.192,55.192l0 889.616c0,30.48 24.706,55.192 55.192,55.192l478.939 0 0 -387.253 -130.318 0 0 -150.92 130.318 0 0 -111.299c0,-129.161 78.888,-199.492 194.109,-199.492 55.193,0 102.628,4.109 116.451,5.945l0 134.981 -79.912 0.038c-62.664,0 -74.797,29.776 -74.797,73.472l0 96.355 149.447 0 -19.459 150.92 -129.988 0 0 387.253 254.826 0c30.48,0 55.192,-24.712 55.192,-55.192l0 -889.616c0,-30.487 -24.712,-55.192 -55.192,-55.192z"/>
 </g>
</svg>
